Lab 5: Student Evaluations of Teaching
…
ℹ Use `spec()` to retrieve the full column specification for this data.
ℹ Specify the column types or set `show_col_types = FALSE` to quiet this message.

teacher_evals_clean <- janitor::clean_names(teacher_evals_clean) 

6. How many unique instructors and unique courses are present in the cleaned dataset?

# code chunk for Q5
unique(teacher_evals_clean[,1])

# A tibble: 921 × 1
   course_id   
   <chr>       
 1 ECB5SE01-PDW
 2 FAB1SP-SJO-A
 3 FAM3SE01-PDW
 4 HHB1NP013   
 5 HHB3NP002   
 6 IRB3SE-SJO-A
 7 IRB5SP-SJO-A
 8 JOB5SE001JO 
 9 MNB1SE-SJO-H
10 MNB5NP-S    
# ℹ 911 more rows

unique(teacher_evals_clean[,2])

# A tibble: 294 × 1
   teacher_id
        <dbl>
 1      50790
 2      37035
 3      38635
 4      76393
 5      70734
 6      59070
 7      40739
 8      54605
 9      59937
10       3684
# ℹ 284 more rows
…
4,270 have doctorate degrees, 1,808 have master’s degrees, 118 had professional degrees, and 467 have no degrees. There are 11 seniority levels; the average level is 5.5 and the median is 6. The gender balance is fairly equal, with 3,199 females and 3,464 males.

9. Each course seems to have used a different subset of the nine evaluation questions. How many teacher-course combinations asked all nine questions?

# code chunk for Q8
teacher_evals_clean |> 
  filter(question_no %in% 901:909) |>  
  group_by(teacher_id, course_id) |>  
  filter(n_distinct(question_no) == 9) |>  
  summarise(total_questions = n())

`summarise()` has grouped output by 'teacher_id'. You can override using the
`.groups` argument.

# A tibble: 48 × 3
# Groups:   teacher_id [42]
   teacher_id course_id        total_questions
        <dbl> <chr>                      <int>
 1       3485 MNB5NP04MN-Z20-w               9
 2       3503 FAB1NP-SJO-A                   9
 3       3521 CII3SP12CI-Z17                 9
 4       3614 FAB1NP-SJO-A                   9
 5       3614 MN-B1SP-SJO-A                  9
 6       3662 CII2SE02CI-L19                 9
 7       4299 IRB5SE02IR-Z20                 9
 8      37025 ECB3SE01EC-Z20                 9
 9      37035 MNB1NP-SJO-A                   9
10      37068 IRB5SP04-PDW                   9
# ℹ 38 more rows

There are 48 teacher-course ID combinations that asked all 9 questions.

Rate my Professor

10. Which instructors had the highest and lowest average rating for Question 1 (I learnt a lot during the course.) across all their courses?

# code chunk for Q9
#view highest and lowest scores overall
teacher_evals_clean |>
  select(set_score_avg) |> 
  arrange(desc(set_score_avg))

# A tibble: 6,663 × 1
   set_score_avg
           <dbl>
 1             5
 2             5
 3             5
 4             5
 5             5
 6             5
 7             5
 8             5
 9             5
10             5
# ℹ 6,653 more rows

teacher_evals_clean |>
  select(set_score_avg) |> 
  arrange(set_score_avg)

# A tibble: 6,663 × 1
   set_score_avg
           <dbl>
 1             1
 2             1
 3             1
 4             1
 5             1
 6             1
 7             1
 8             1
 9             1
10             1
# ℹ 6,653 more rows

#answer the question: highest and lowest rated teachers
teacher_evals_clean |>
  group_by(teacher_id) |>
  summarize(total_score_avg = mean(set_score_avg)) |> 
  filter(total_score_avg %in% c(1,5)) |> 
  arrange(total_score_avg)

# A tibble: 31 × 2
   teacher_id total_score_avg
        <dbl>           <dbl>
 1      54201               1
 2       3682               5
 3      36250               5
 4      37013               5
 5      37023               5
 6      50714               5
 7      50740               5
 8      50759               5
 9      50790               5
10      54309               5
# ℹ 21 more rows
…
12. Which female instructors with either a doctorate or professional degree had the highest and lowest average percent of students responding to the evaluation across all their courses?

# code chunk for Q11
teacher_evals_clean |> 
  filter(sex == "female", 
         academic_degree %in% c("dr", "prof")) |> 
  group_by(teacher_id) |> 
  summarize(avg_resp_rate = mean(resp_share, na.rm = TRUE)) |> 
  arrange(desc(avg_resp_rate))

# A tibble: 74 × 2
   teacher_id avg_resp_rate
        <dbl>         <dbl>
 1     101508         0.522
 2      66292         0.345
 3      66289         0.256
 4      76408         0.25 
 5      60947         0.221
 6      66291         0.200
 7      62909         0.185
 8      76394         0.182
 9      66281         0.180
10      40698         0.167
# ℹ 64 more rows
…
